<?xml version="1.0" encoding="UTF-8" standalone="no"?>
<!-- Created with Inkscape (http://www.inkscape.org/) -->

<svg
   xmlns:dc="http://purl.org/dc/elements/1.1/"
   xmlns:cc="http://creativecommons.org/ns#"
   xmlns:rdf="http://www.w3.org/1999/02/22-rdf-syntax-ns#"
   xmlns:svg="http://www.w3.org/2000/svg"
   xmlns="http://www.w3.org/2000/svg"
   xmlns:xlink="http://www.w3.org/1999/xlink"
   xmlns:sodipodi="http://sodipodi.sourceforge.net/DTD/sodipodi-0.dtd"
   xmlns:inkscape="http://www.inkscape.org/namespaces/inkscape"
   sodipodi:docname="general-stack-pres.svg"
   inkscape:version="0.48.3.1 r9886"
   version="1.1"
   id="svg2"
   height="580.98505"
   width="552.70544">
  <sodipodi:namedview
     id="base"
     pagecolor="#ffffff"
     bordercolor="#666666"
     borderopacity="1.0"
     inkscape:pageopacity="0.0"
     inkscape:pageshadow="2"
     inkscape:zoom="1.4"
     inkscape:cx="26.670073"
     inkscape:cy="296.14176"
     inkscape:document-units="px"
     inkscape:current-layer="layer1"
     showgrid="false"
     inkscape:window-width="1680"
     inkscape:window-height="1025"
     inkscape:window-x="0"
     inkscape:window-y="30"
     inkscape:window-maximized="1"
     inkscape:snap-grids="true"
     fit-margin-top="20"
     fit-margin-left="20"
     fit-margin-right="20"
     fit-margin-bottom="20" />
  <defs
     id="defs4">
    <marker
       style="overflow:visible"
       id="DotL"
       refX="0.0"
       refY="0.0"
       orient="auto"
       inkscape:stockid="DotL">
      <path
         transform="scale(0.8) translate(7.4, 1)"
         style="fill-rule:evenodd;stroke:#000000;stroke-width:1.0pt"
         d="M -2.5,-1.0 C -2.5,1.7600000 -4.7400000,4.0 -7.5,4.0 C -10.260000,4.0 -12.5,1.7600000 -12.5,-1.0 C -12.5,-3.7600000 -10.260000,-6.0 -7.5,-6.0 C -4.7400000,-6.0 -2.5,-3.7600000 -2.5,-1.0 z "
         id="path6859" />
    </marker>
    <linearGradient
       id="linearGradient5983">
      <stop
         offset="0"
         style="stop-color:#3b3c3a;stop-opacity:1"
         id="stop5985" />
      <stop
         offset="0.5"
         style="stop-color:#989a96;stop-opacity:1"
         id="stop5991" />
      <stop
         offset="1"
         style="stop-color:#31322f;stop-opacity:1"
         id="stop5987" />
    </linearGradient>
    <filter
       id="filter6025"
       color-interpolation-filters="sRGB"
       height="1.3305128"
       width="1.1211669"
       y="-0.1652564"
       x="-0.060583439">
      <feGaussianBlur
         id="feGaussianBlur6027"
         stdDeviation="0.70469123" />
    </filter>
    <linearGradient
       id="linearGradient2206">
      <stop
         offset="0"
         style="stop-color:#ffffff;stop-opacity:1"
         id="stop2208" />
      <stop
         offset="1"
         style="stop-color:#ffffff;stop-opacity:0"
         id="stop2210" />
    </linearGradient>
    <linearGradient
       id="linearGradient7386">
      <stop
         offset="0"
         style="stop-color:#ffffff;stop-opacity:1"
         id="stop7388" />
      <stop
         offset="0.34523809"
         style="stop-color:#ffffff;stop-opacity:1"
         id="stop6033" />
      <stop
         offset="0.79733562"
         style="stop-color:#c1c1c1;stop-opacity:1"
         id="stop6031" />
      <stop
         offset="1"
         style="stop-color:#e3e3e3;stop-opacity:1"
         id="stop7390" />
    </linearGradient>
    <linearGradient
       id="linearGradient6035">
      <stop
         offset="0"
         style="stop-color:#8e908b;stop-opacity:1"
         id="stop6037" />
      <stop
         offset="1"
         style="stop-color:#40423f;stop-opacity:1"
         id="stop6039" />
    </linearGradient>
    <linearGradient
       id="linearGradient3087">
      <stop
         offset="0"
         style="stop-color:#ffffff;stop-opacity:1"
         id="stop3089" />
      <stop
         offset="1"
         style="stop-color:#ffffff;stop-opacity:0"
         id="stop3091" />
    </linearGradient>
    <linearGradient
       id="linearGradient6596">
      <stop
         offset="0"
         style="stop-color:#a6c3e1;stop-opacity:1"
         id="stop6598" />
      <stop
         offset="1"
         style="stop-color:#a6c3e1;stop-opacity:0"
         id="stop6600" />
    </linearGradient>
    <linearGradient
       id="linearGradient11646">
      <stop
         offset="0"
         style="stop-color:#ffffff;stop-opacity:1"
         id="stop11648" />
      <stop
         offset="1"
         style="stop-color:#ffffff;stop-opacity:0"
         id="stop11650" />
    </linearGradient>
    <linearGradient
       id="linearGradient8895">
      <stop
         offset="0"
         style="stop-color:#204a87;stop-opacity:0"
         id="stop8899" />
      <stop
         offset="0.5"
         style="stop-color:#204a87;stop-opacity:0"
         id="stop8905" />
      <stop
         offset="1"
         style="stop-color:#204a87;stop-opacity:1"
         id="stop8897" />
    </linearGradient>
    <linearGradient
       id="linearGradient8909">
      <stop
         offset="0"
         style="stop-color:#edd400;stop-opacity:1"
         id="stop8911" />
      <stop
         offset="1"
         style="stop-color:#edd400;stop-opacity:0"
         id="stop8913" />
    </linearGradient>
    <linearGradient
       id="linearGradient5975">
      <stop
         offset="0"
         style="stop-color:#ffffff;stop-opacity:1"
         id="stop5977" />
      <stop
         offset="1"
         style="stop-color:#ffffff;stop-opacity:0"
         id="stop5979" />
    </linearGradient>
    <filter
       id="filter6137"
       color-interpolation-filters="sRGB"
       height="1.7304602"
       width="1.776114"
       y="-0.36523011"
       x="-0.38805699">
      <feGaussianBlur
         id="feGaussianBlur6139"
         stdDeviation="0.39207371" />
    </filter>
    <linearGradient
       id="linearGradient6147">
      <stop
         offset="0"
         style="stop-color:#ffffff;stop-opacity:1"
         id="stop6149" />
      <stop
         offset="1"
         style="stop-color:#ffffff;stop-opacity:0"
         id="stop6151" />
    </linearGradient>
    <linearGradient
       y2="36.340141"
       x2="34.94733"
       y1="36.340141"
       x1="13.027615"
       gradientTransform="matrix(2.3001747,0,0,2.3001747,531.7228,178.99157)"
       gradientUnits="userSpaceOnUse"
       id="linearGradient6482"
       xlink:href="#linearGradient5983"
       inkscape:collect="always" />
    <linearGradient
       y2="36.587273"
       x2="32.471783"
       y1="42.274773"
       x1="33.57629"
       gradientTransform="matrix(2.3001747,0,0,2.3001747,531.7228,178.99157)"
       gradientUnits="userSpaceOnUse"
       id="linearGradient6484"
       xlink:href="#linearGradient2206"
       inkscape:collect="always" />
    <radialGradient
       r="17.011631"
       fy="13.112228"
       fx="23.987465"
       cy="13.112228"
       cx="23.987465"
       gradientTransform="matrix(0,2.8312271,-3.1202351,0,627.81139,142.05537)"
       gradientUnits="userSpaceOnUse"
       id="radialGradient6486"
       xlink:href="#linearGradient7386"
       inkscape:collect="always" />
    <radialGradient
       r="17.011631"
       fy="3.4559402"
       fx="23.987465"
       cy="3.4559402"
       cx="23.987465"
       gradientTransform="matrix(4.403578,0,0,4.1908376,481.26749,174.34794)"
       gradientUnits="userSpaceOnUse"
       id="radialGradient6488"
       xlink:href="#linearGradient6035"
       inkscape:collect="always" />
    <linearGradient
       y2="1.6754831"
       x2="53.135429"
       y1="20.345228"
       x1="53.135429"
       gradientTransform="matrix(1.717874,0,0,1.7189206,495.66961,208.39624)"
       gradientUnits="userSpaceOnUse"
       id="linearGradient6490"
       xlink:href="#linearGradient3087"
       inkscape:collect="always" />
    <linearGradient
       y2="5.7632418"
       x2="23.862038"
       y1="3.7243195"
       x1="23.862038"
       gradientTransform="matrix(2.3001747,0,0,2.3001747,531.7228,178.99157)"
       gradientUnits="userSpaceOnUse"
       id="linearGradient6492"
       xlink:href="#linearGradient6596"
       inkscape:collect="always" />
    <radialGradient
       r="1.75"
       fy="22.900909"
       fx="14.979873"
       cy="22.900909"
       cx="14.979873"
       gradientTransform="matrix(5.1775964,0,0,5.3625067,510.55809,109.28288)"
       gradientUnits="userSpaceOnUse"
       id="radialGradient6494"
       xlink:href="#linearGradient11646"
       inkscape:collect="always" />
    <radialGradient
       r="2.6875"
       fy="31"
       fx="32.3125"
       cy="31"
       cx="32.3125"
       gradientTransform="matrix(4.9096556,0,0,4.9096556,428.31803,75.061634)"
       gradientUnits="userSpaceOnUse"
       id="radialGradient6496"
       xlink:href="#linearGradient8895"
       inkscape:collect="always" />
    <radialGradient
       r="4.125"
       fy="27.869101"
       fx="33.242355"
       cy="27.869101"
       cx="33.242355"
       gradientTransform="matrix(1.8294917,-0.11133041,0.0988352,1.6241554,523.41721,195.22005)"
       gradientUnits="userSpaceOnUse"
       id="radialGradient6498"
       xlink:href="#linearGradient8909"
       inkscape:collect="always" />
    <linearGradient
       y2="20.199675"
       x2="20.875"
       y1="18.5625"
       x1="20.875"
       gradientTransform="matrix(5.5204193,0,0,3.6802795,471.68824,152.07953)"
       gradientUnits="userSpaceOnUse"
       id="linearGradient6500"
       xlink:href="#linearGradient5975"
       inkscape:collect="always" />
    <linearGradient
       y2="13.554156"
       x2="53.135429"
       y1="20.189396"
       x1="53.135429"
       gradientTransform="matrix(2.2415823,0,0,2.2408293,467.82214,202.62413)"
       gradientUnits="userSpaceOnUse"
       id="linearGradient6502"
       xlink:href="#linearGradient6147"
       inkscape:collect="always" />
    <filter
       color-interpolation-filters="sRGB"
       inkscape:menu-tooltip="Render in shades of gray by reducing saturation to zero"
       inkscape:menu="Color"
       height="1"
       width="1"
       y="0"
       x="0"
       inkscape:label="Desaturate"
       id="filter6615">
      <feColorMatrix
         values="0"
         type="saturate"
         id="feColorMatrix6617" />
    </filter>
    <linearGradient
       y2="36.340141"
       x2="34.94733"
       y1="36.340141"
       x1="13.027615"
       gradientTransform="matrix(2.3001747,0,0,2.3001747,531.7228,178.99157)"
       gradientUnits="userSpaceOnUse"
       id="linearGradient6482-871"
       xlink:href="#linearGradient5983-221"
       inkscape:collect="always" />
    <linearGradient
       id="linearGradient5983-221">
      <stop
         offset="0"
         style="stop-color:#3b3b3b;stop-opacity:1"
         id="stop7924" />
      <stop
         offset="0.5"
         style="stop-color:#989898;stop-opacity:1"
         id="stop7926" />
      <stop
         offset="1"
         style="stop-color:#303030;stop-opacity:1"
         id="stop7928" />
    </linearGradient>
    <linearGradient
       y2="36.587273"
       x2="32.471783"
       y1="42.274773"
       x1="33.57629"
       gradientTransform="matrix(2.3001747,0,0,2.3001747,531.7228,178.99157)"
       gradientUnits="userSpaceOnUse"
       id="linearGradient6484-756"
       xlink:href="#linearGradient2206-788"
       inkscape:collect="always" />
    <linearGradient
       id="linearGradient2206-788">
      <stop
         offset="0"
         style="stop-color:#ffffff;stop-opacity:1"
         id="stop7932" />
      <stop
         offset="1"
         style="stop-color:#ffffff;stop-opacity:0"
         id="stop7934" />
    </linearGradient>
    <radialGradient
       r="17.011631"
       fy="13.112228"
       fx="23.987465"
       cy="13.112228"
       cx="23.987465"
       gradientTransform="matrix(0,2.8312271,-3.1202351,0,627.81139,142.05537)"
       gradientUnits="userSpaceOnUse"
       id="radialGradient6486-745"
       xlink:href="#linearGradient7386-568"
       inkscape:collect="always" />
    <linearGradient
       id="linearGradient7386-568">
      <stop
         offset="0"
         style="stop-color:#ffffff;stop-opacity:1"
         id="stop7938" />
      <stop
         offset="0.34523809"
         style="stop-color:#ffffff;stop-opacity:1"
         id="stop7940" />
      <stop
         offset="0.79733562"
         style="stop-color:#c1c1c1;stop-opacity:1"
         id="stop7942" />
      <stop
         offset="1"
         style="stop-color:#e3e3e3;stop-opacity:1"
         id="stop7944" />
    </linearGradient>
    <radialGradient
       r="17.011631"
       fy="3.4559402"
       fx="23.987465"
       cy="3.4559402"
       cx="23.987465"
       gradientTransform="matrix(4.403578,0,0,4.1908376,481.26749,174.34794)"
       gradientUnits="userSpaceOnUse"
       id="radialGradient6488-832"
       xlink:href="#linearGradient6035-63"
       inkscape:collect="always" />
    <linearGradient
       id="linearGradient6035-63">
      <stop
         offset="0"
         style="stop-color:#8d8d8d;stop-opacity:1"
         id="stop7948" />
      <stop
         offset="1"
         style="stop-color:#404040;stop-opacity:1"
         id="stop7950" />
    </linearGradient>
    <linearGradient
       y2="1.6754831"
       x2="53.135429"
       y1="20.345228"
       x1="53.135429"
       gradientTransform="matrix(1.717874,0,0,1.7189206,495.66961,208.39624)"
       gradientUnits="userSpaceOnUse"
       id="linearGradient6490-991"
       xlink:href="#linearGradient3087-659"
       inkscape:collect="always" />
    <linearGradient
       id="linearGradient3087-659">
      <stop
         offset="0"
         style="stop-color:#ffffff;stop-opacity:1"
         id="stop7954" />
      <stop
         offset="1"
         style="stop-color:#ffffff;stop-opacity:0"
         id="stop7956" />
    </linearGradient>
    <linearGradient
       y2="5.7632418"
       x2="23.862038"
       y1="3.7243195"
       x1="23.862038"
       gradientTransform="matrix(2.3001747,0,0,2.3001747,531.7228,178.99157)"
       gradientUnits="userSpaceOnUse"
       id="linearGradient6492-203"
       xlink:href="#linearGradient6596-215"
       inkscape:collect="always" />
    <linearGradient
       id="linearGradient6596-215">
      <stop
         offset="0"
         style="stop-color:#c3c3c3;stop-opacity:1"
         id="stop7960" />
      <stop
         offset="1"
         style="stop-color:#c3c3c3;stop-opacity:0"
         id="stop7962" />
    </linearGradient>
    <radialGradient
       r="1.75"
       fy="22.900909"
       fx="14.979873"
       cy="22.900909"
       cx="14.979873"
       gradientTransform="matrix(5.1775964,0,0,5.3625067,510.55809,109.28288)"
       gradientUnits="userSpaceOnUse"
       id="radialGradient6494-163"
       xlink:href="#linearGradient11646-309"
       inkscape:collect="always" />
    <linearGradient
       id="linearGradient11646-309">
      <stop
         offset="0"
         style="stop-color:#ffffff;stop-opacity:1"
         id="stop7966" />
      <stop
         offset="1"
         style="stop-color:#ffffff;stop-opacity:0"
         id="stop7968" />
    </linearGradient>
    <radialGradient
       r="2.6875"
       fy="31"
       fx="32.3125"
       cy="31"
       cx="32.3125"
       gradientTransform="matrix(4.9096556,0,0,4.9096556,428.31803,75.061634)"
       gradientUnits="userSpaceOnUse"
       id="radialGradient6496-599"
       xlink:href="#linearGradient8895-349"
       inkscape:collect="always" />
    <linearGradient
       id="linearGradient8895-349">
      <stop
         offset="0"
         style="stop-color:#535353;stop-opacity:0"
         id="stop7972" />
      <stop
         offset="0.5"
         style="stop-color:#535353;stop-opacity:0"
         id="stop7974" />
      <stop
         offset="1"
         style="stop-color:#535353;stop-opacity:1"
         id="stop7976" />
    </linearGradient>
    <radialGradient
       r="4.125"
       fy="27.869101"
       fx="33.242355"
       cy="27.869101"
       cx="33.242355"
       gradientTransform="matrix(1.8294917,-0.11133041,0.0988352,1.6241554,523.41721,195.22005)"
       gradientUnits="userSpaceOnUse"
       id="radialGradient6498-3"
       xlink:href="#linearGradient8909-215"
       inkscape:collect="always" />
    <linearGradient
       id="linearGradient8909-215">
      <stop
         offset="0"
         style="stop-color:#767676;stop-opacity:1"
         id="stop7980" />
      <stop
         offset="1"
         style="stop-color:#767676;stop-opacity:0"
         id="stop7982" />
    </linearGradient>
    <linearGradient
       y2="20.199675"
       x2="20.875"
       y1="18.5625"
       x1="20.875"
       gradientTransform="matrix(5.5204193,0,0,3.6802795,471.68824,152.07953)"
       gradientUnits="userSpaceOnUse"
       id="linearGradient6500-168"
       xlink:href="#linearGradient5975-27"
       inkscape:collect="always" />
    <linearGradient
       id="linearGradient5975-27">
      <stop
         offset="0"
         style="stop-color:#ffffff;stop-opacity:1"
         id="stop7986" />
      <stop
         offset="1"
         style="stop-color:#ffffff;stop-opacity:0"
         id="stop7988" />
    </linearGradient>
    <linearGradient
       y2="13.554156"
       x2="53.135429"
       y1="20.189396"
       x1="53.135429"
       gradientTransform="matrix(2.2415823,0,0,2.2408293,467.82214,202.62413)"
       gradientUnits="userSpaceOnUse"
       id="linearGradient6502-41"
       xlink:href="#linearGradient6147-998"
       inkscape:collect="always" />
    <linearGradient
       id="linearGradient6147-998">
      <stop
         offset="0"
         style="stop-color:#ffffff;stop-opacity:1"
         id="stop7992" />
      <stop
         offset="1"
         style="stop-color:#ffffff;stop-opacity:0"
         id="stop7994" />
    </linearGradient>
    <filter
       id="filter4032"
       style="color-interpolation-filters:sRGB;"
       inkscape:label="Drop Shadow">
      <feFlood
         id="feFlood4034"
         flood-opacity="0.5"
         flood-color="rgb(0,0,0)"
         result="flood" />
      <feComposite
         id="feComposite4036"
         in2="SourceGraphic"
         in="flood"
         operator="in"
         result="composite1" />
      <feGaussianBlur
         id="feGaussianBlur4038"
         in="composite"
         stdDeviation="2"
         result="blur" />
      <feOffset
         id="feOffset4040"
         dx="3"
         dy="3"
         result="offset" />
      <feComposite
         id="feComposite4042"
         in2="offset"
         in="SourceGraphic"
         operator="over"
         result="composite2" />
    </filter>
  </defs>
  <metadata
     id="metadata7">
    <rdf:RDF>
      <cc:Work
         rdf:about="">
        <dc:format>image/svg+xml</dc:format>
        <dc:type
           rdf:resource="http://purl.org/dc/dcmitype/StillImage" />
        <dc:title />
      </cc:Work>
    </rdf:RDF>
  </metadata>
  <g
     transform="translate(-87.027286,-166.36145)"
     id="layer1"
     inkscape:groupmode="layer"
     inkscape:label="Layer 1">
    <g
       style="fill:#f2f2f2;stroke-width:3.4483285;stroke-miterlimit:4;stroke-dasharray:none"
       transform="matrix(0.28999557,0,0,0.28999557,94.616393,588.8028)"
       id="g1095">
      <rect
         style="fill:#f2f2f2;stroke:#000000;stroke-width:3.4483285;stroke-miterlimit:4;stroke-dasharray:none"
         x="45.021"
         y="44.02"
         width="72"
         height="72"
         id="rect1097" />
      <rect
         style="fill:#f2f2f2;stroke:#000000;stroke-width:3.4483285;stroke-miterlimit:4;stroke-dasharray:none"
         x="117.021"
         y="44.02"
         width="72"
         height="72"
         id="rect1099" />
      <rect
         style="fill:#f2f2f2;stroke:#000000;stroke-width:3.4483285;stroke-miterlimit:4;stroke-dasharray:none"
         x="189.021"
         y="44.02"
         width="72"
         height="72"
         id="rect1101" />
      <rect
         style="fill:#f2f2f2;stroke:#000000;stroke-width:3.4483285;stroke-miterlimit:4;stroke-dasharray:none"
         x="261.021"
         y="44.02"
         width="72"
         height="72"
         id="rect1103" />
      <rect
         style="fill:#f2f2f2;stroke:#000000;stroke-width:3.4483285;stroke-miterlimit:4;stroke-dasharray:none"
         x="333.021"
         y="44.02"
         width="72"
         height="72"
         id="rect1105" />
      <rect
         style="fill:#f2f2f2;stroke:#000000;stroke-width:3.4483285;stroke-miterlimit:4;stroke-dasharray:none"
         x="405.021"
         y="44.02"
         width="72"
         height="72"
         id="rect1107" />
      <rect
         style="fill:#f2f2f2;stroke:#000000;stroke-width:3.4483285;stroke-miterlimit:4;stroke-dasharray:none"
         x="477.021"
         y="44.02"
         width="72"
         height="72"
         id="rect1109" />
      <rect
         style="fill:#f2f2f2;stroke:#000000;stroke-width:3.4483285;stroke-miterlimit:4;stroke-dasharray:none"
         x="549.021"
         y="44.02"
         width="72"
         height="72"
         id="rect1111" />
      <rect
         style="fill:#f2f2f2;stroke:#000000;stroke-width:3.4483285;stroke-miterlimit:4;stroke-dasharray:none"
         x="621.021"
         y="44.02"
         width="72"
         height="72"
         id="rect1113" />
      <rect
         style="fill:#f2f2f2;stroke:#000000;stroke-width:3.4483285;stroke-miterlimit:4;stroke-dasharray:none"
         x="44.521"
         y="116.02"
         width="72"
         height="72"
         id="rect1115" />
      <rect
         style="fill:#f2f2f2;stroke:#000000;stroke-width:3.4483285;stroke-miterlimit:4;stroke-dasharray:none"
         x="116.521"
         y="116.02"
         width="72"
         height="72"
         id="rect1117" />
      <rect
         style="fill:#f2f2f2;stroke:#000000;stroke-width:3.4483285;stroke-miterlimit:4;stroke-dasharray:none"
         x="188.521"
         y="116.02"
         width="72"
         height="72"
         id="rect1119" />
      <rect
         style="fill:#f2f2f2;stroke:#000000;stroke-width:3.4483285;stroke-miterlimit:4;stroke-dasharray:none"
         x="260.521"
         y="116.02"
         width="72"
         height="72"
         id="rect1121" />
      <rect
         style="fill:#f2f2f2;stroke:#000000;stroke-width:3.4483285;stroke-miterlimit:4;stroke-dasharray:none"
         x="332.521"
         y="116.02"
         width="72"
         height="72"
         id="rect1123" />
      <rect
         style="fill:#f2f2f2;stroke:#000000;stroke-width:3.4483285;stroke-miterlimit:4;stroke-dasharray:none"
         x="404.521"
         y="116.02"
         width="72"
         height="72"
         id="rect1125" />
      <rect
         style="fill:#f2f2f2;stroke:#000000;stroke-width:3.4483285;stroke-miterlimit:4;stroke-dasharray:none"
         x="476.521"
         y="116.02"
         width="72"
         height="72"
         id="rect1127" />
      <rect
         style="fill:#f2f2f2;stroke:#000000;stroke-width:3.4483285;stroke-miterlimit:4;stroke-dasharray:none"
         x="548.521"
         y="116.02"
         width="72"
         height="72"
         id="rect1129" />
      <rect
         style="fill:#f2f2f2;stroke:#000000;stroke-width:3.4483285;stroke-miterlimit:4;stroke-dasharray:none"
         x="620.521"
         y="116.02"
         width="72"
         height="72"
         id="rect1131" />
      <rect
         style="fill:#f2f2f2;stroke:#000000;stroke-width:3.4483285;stroke-miterlimit:4;stroke-dasharray:none"
         x="44.521"
         y="188.02"
         width="72"
         height="72"
         id="rect1133" />
      <rect
         style="fill:#f2f2f2;stroke:#000000;stroke-width:3.4483285;stroke-miterlimit:4;stroke-dasharray:none"
         x="116.521"
         y="188.02"
         width="72"
         height="72"
         id="rect1135" />
      <rect
         style="fill:#f2f2f2;stroke:#000000;stroke-width:3.4483285;stroke-miterlimit:4;stroke-dasharray:none"
         x="188.521"
         y="188.02"
         width="72"
         height="72"
         id="rect1137" />
      <rect
         style="fill:#f2f2f2;stroke:#000000;stroke-width:3.4483285;stroke-miterlimit:4;stroke-dasharray:none"
         x="260.521"
         y="188.02"
         width="72"
         height="72"
         id="rect1139" />
      <rect
         style="fill:#f2f2f2;stroke:#000000;stroke-width:3.4483285;stroke-miterlimit:4;stroke-dasharray:none"
         x="332.521"
         y="188.02"
         width="72"
         height="72"
         id="rect1141" />
      <rect
         style="fill:#f2f2f2;stroke:#000000;stroke-width:3.4483285;stroke-miterlimit:4;stroke-dasharray:none"
         x="404.521"
         y="188.02"
         width="72"
         height="72"
         id="rect1143" />
      <rect
         style="fill:#f2f2f2;stroke:#000000;stroke-width:3.4483285;stroke-miterlimit:4;stroke-dasharray:none"
         x="476.521"
         y="188.02"
         width="72"
         height="72"
         id="rect1145" />
      <rect
         style="fill:#f2f2f2;stroke:#000000;stroke-width:3.4483285;stroke-miterlimit:4;stroke-dasharray:none"
         x="548.521"
         y="188.02"
         width="72"
         height="72"
         id="rect1147" />
      <rect
         style="fill:#f2f2f2;stroke:#000000;stroke-width:3.4483285;stroke-miterlimit:4;stroke-dasharray:none"
         x="620.521"
         y="188.02"
         width="72"
         height="72"
         id="rect1149" />
      <rect
         style="fill:#f2f2f2;stroke:#000000;stroke-width:3.4483285;stroke-miterlimit:4;stroke-dasharray:none"
         x="45.021"
         y="260.01999"
         width="72"
         height="72"
         id="rect1151" />
      <rect
         style="fill:#f2f2f2;stroke:#000000;stroke-width:3.4483285;stroke-miterlimit:4;stroke-dasharray:none"
         x="117.021"
         y="260.01999"
         width="72"
         height="72"
         id="rect1153" />
      <rect
         style="fill:#f2f2f2;stroke:#000000;stroke-width:3.4483285;stroke-miterlimit:4;stroke-dasharray:none"
         x="189.021"
         y="260.01999"
         width="72"
         height="72"
         id="rect1155" />
      <rect
         style="fill:#f2f2f2;stroke:#000000;stroke-width:3.4483285;stroke-miterlimit:4;stroke-dasharray:none"
         x="261.021"
         y="260.01999"
         width="72"
         height="72"
         id="rect1157" />
      <rect
         style="fill:#f2f2f2;stroke:#000000;stroke-width:3.4483285;stroke-miterlimit:4;stroke-dasharray:none"
         x="333.021"
         y="260.01999"
         width="72"
         height="72"
         id="rect1159" />
      <rect
         style="fill:#f2f2f2;stroke:#000000;stroke-width:3.4483285;stroke-miterlimit:4;stroke-dasharray:none"
         x="405.021"
         y="260.01999"
         width="72"
         height="72"
         id="rect1161" />
      <rect
         style="fill:#f2f2f2;stroke:#000000;stroke-width:3.4483285;stroke-miterlimit:4;stroke-dasharray:none"
         x="477.021"
         y="260.01999"
         width="72"
         height="72"
         id="rect1163" />
      <rect
         style="fill:#f2f2f2;stroke:#000000;stroke-width:3.4483285;stroke-miterlimit:4;stroke-dasharray:none"
         x="549.021"
         y="260.01999"
         width="72"
         height="72"
         id="rect1165" />
      <rect
         style="fill:#f2f2f2;stroke:#000000;stroke-width:3.4483285;stroke-miterlimit:4;stroke-dasharray:none"
         x="621.021"
         y="260.01999"
         width="72"
         height="72"
         id="rect1167" />
      <rect
         style="fill:#f2f2f2;stroke:#000000;stroke-width:3.4483285;stroke-miterlimit:4;stroke-dasharray:none"
         x="45.021"
         y="332.01999"
         width="72"
         height="72"
         id="rect1169" />
      <rect
         style="fill:#f2f2f2;stroke:#000000;stroke-width:3.4483285;stroke-miterlimit:4;stroke-dasharray:none"
         x="117.021"
         y="332.01999"
         width="72"
         height="72"
         id="rect1171" />
      <rect
         style="fill:#f2f2f2;stroke:#000000;stroke-width:3.4483285;stroke-miterlimit:4;stroke-dasharray:none"
         x="189.021"
         y="332.01999"
         width="72"
         height="72"
         id="rect1173" />
      <rect
         style="fill:#f2f2f2;stroke:#000000;stroke-width:3.4483285;stroke-miterlimit:4;stroke-dasharray:none"
         x="261.021"
         y="332.01999"
         width="72"
         height="72"
         id="rect1175" />
      <rect
         style="fill:#f2f2f2;stroke:#000000;stroke-width:3.4483285;stroke-miterlimit:4;stroke-dasharray:none"
         x="333.021"
         y="332.01999"
         width="72"
         height="72"
         id="rect1177" />
      <rect
         style="fill:#f2f2f2;stroke:#000000;stroke-width:3.4483285;stroke-miterlimit:4;stroke-dasharray:none"
         x="405.021"
         y="332.01999"
         width="72"
         height="72"
         id="rect1179" />
      <rect
         style="fill:#f2f2f2;stroke:#000000;stroke-width:3.4483285;stroke-miterlimit:4;stroke-dasharray:none"
         x="477.021"
         y="332.01999"
         width="72"
         height="72"
         id="rect1181" />
      <rect
         style="fill:#f2f2f2;stroke:#000000;stroke-width:3.4483285;stroke-miterlimit:4;stroke-dasharray:none"
         x="549.021"
         y="332.01999"
         width="72"
         height="72"
         id="rect1183" />
      <rect
         style="fill:#f2f2f2;stroke:#000000;stroke-width:3.4483285;stroke-miterlimit:4;stroke-dasharray:none"
         x="621.021"
         y="332.01999"
         width="72"
         height="72"
         id="rect1185" />
      <rect
         style="fill:#f2f2f2;stroke:#000000;stroke-width:3.4483285;stroke-miterlimit:4;stroke-dasharray:none"
         x="45.021"
         y="404.01999"
         width="72"
         height="72"
         id="rect1187" />
      <rect
         style="fill:#f2f2f2;stroke:#000000;stroke-width:3.4483285;stroke-miterlimit:4;stroke-dasharray:none"
         x="117.021"
         y="404.01999"
         width="72"
         height="72"
         id="rect1189" />
      <rect
         style="fill:#f2f2f2;stroke:#000000;stroke-width:3.4483285;stroke-miterlimit:4;stroke-dasharray:none"
         x="189.021"
         y="404.01999"
         width="72"
         height="72"
         id="rect1191" />
      <rect
         style="fill:#f2f2f2;stroke:#000000;stroke-width:3.4483285;stroke-miterlimit:4;stroke-dasharray:none"
         x="261.021"
         y="404.01999"
         width="72"
         height="72"
         id="rect1193" />
      <rect
         style="fill:#f2f2f2;stroke:#000000;stroke-width:3.4483285;stroke-miterlimit:4;stroke-dasharray:none"
         x="333.021"
         y="404.01999"
         width="72"
         height="72"
         id="rect1195" />
      <rect
         style="fill:#f2f2f2;stroke:#000000;stroke-width:3.4483285;stroke-miterlimit:4;stroke-dasharray:none"
         x="405.021"
         y="404.01999"
         width="72"
         height="72"
         id="rect1197" />
      <rect
         style="fill:#f2f2f2;stroke:#000000;stroke-width:3.4483285;stroke-miterlimit:4;stroke-dasharray:none"
         x="477.021"
         y="404.01999"
         width="72"
         height="72"
         id="rect1199" />
      <rect
         style="fill:#f2f2f2;stroke:#000000;stroke-width:3.4483285;stroke-miterlimit:4;stroke-dasharray:none"
         x="549.021"
         y="404.01999"
         width="72"
         height="72"
         id="rect1201" />
      <rect
         style="fill:#f2f2f2;stroke:#000000;stroke-width:3.4483285;stroke-miterlimit:4;stroke-dasharray:none"
         x="621.021"
         y="404.01999"
         width="72"
         height="72"
         id="rect1203" />
    </g>
    <rect
       y="305.3812"
       x="163.97018"
       height="92.85714"
       width="150"
       id="rect2985"
       style="fill:#ffffff;stroke:#000000;stroke-width:1;stroke-linecap:round;stroke-linejoin:round;stroke-miterlimit:4;stroke-opacity:1;stroke-dasharray:none;stroke-dashoffset:0" />
    <rect
       y="305.12619"
       x="332.84363"
       height="92.85714"
       width="150"
       id="rect2985-3"
       style="fill:#b3b3b3;stroke:#000000;stroke-width:1;stroke-linecap:round;stroke-linejoin:round;stroke-miterlimit:4;stroke-opacity:1;stroke-dasharray:none;stroke-dashoffset:0" />
    <rect
       y="186.86145"
       x="137.75642"
       height="69.28717"
       width="318.20145"
       id="rect3779-5"
       style="fill:#b3b3b3;fill-opacity:1;fill-rule:nonzero;stroke:#000000;stroke-width:1;stroke-linecap:round;stroke-linejoin:round;stroke-miterlimit:4;stroke-opacity:1;stroke-dasharray:8, 8;stroke-dashoffset:0" />
    <rect
       y="203.43288"
       x="150.89928"
       height="69.28717"
       width="318.20145"
       id="rect3779-8"
       style="fill:#b3b3b3;fill-opacity:1;fill-rule:nonzero;stroke:#000000;stroke-width:1;stroke-linecap:round;stroke-linejoin:round;stroke-miterlimit:4;stroke-opacity:1;stroke-dasharray:8, 8;stroke-dashoffset:0" />
    <rect
       y="221.21864"
       x="164.29929"
       height="69.28717"
       width="318.20145"
       id="rect3779"
       style="fill:#b3b3b3;fill-opacity:1;fill-rule:nonzero;stroke:#000000;stroke-width:1;stroke-linecap:round;stroke-linejoin:round;stroke-miterlimit:4;stroke-opacity:1;stroke-dasharray:none;stroke-dashoffset:0" />
    <rect
       y="434.63129"
       x="164.64302"
       height="47.610676"
       width="318.20145"
       id="rect3779-4"
       style="fill:#ffffff;fill-opacity:1;fill-rule:nonzero;stroke:#999999;stroke-width:0.8289451;stroke-linecap:round;stroke-linejoin:round;stroke-miterlimit:4;stroke-opacity:1;stroke-dasharray:6.63156063, 6.63156063;stroke-dashoffset:0" />
    <rect
       y="496.82153"
       x="164.64305"
       height="69.28717"
       width="318.20145"
       id="rect3779-6"
       style="fill:#b3b3b3;fill-opacity:1;fill-rule:nonzero;stroke:#000000;stroke-width:1;stroke-linecap:round;stroke-linejoin:round;stroke-miterlimit:4;stroke-opacity:1;stroke-dasharray:none;stroke-dashoffset:0" />
    <rect
       y="581.0611"
       x="163.97025"
       height="92.85714"
       width="150"
       id="rect2985-2"
       style="fill:#f2f2f2;stroke:#000000;stroke-width:1;stroke-linecap:round;stroke-linejoin:round;stroke-miterlimit:4;stroke-opacity:1;stroke-dasharray:none;stroke-dashoffset:0" />
    <rect
       y="580.80609"
       x="332.84369"
       height="92.85714"
       width="150"
       id="rect2985-3-7"
       style="fill:#f2f2f2;stroke:#000000;stroke-width:1;stroke-linecap:round;stroke-linejoin:round;stroke-miterlimit:4;stroke-opacity:1;stroke-dasharray:none;stroke-dashoffset:0" />
    <flowRoot
       transform="translate(-209.5824,103.04869)"
       style="font-size:20px;font-style:normal;font-variant:normal;font-weight:normal;font-stretch:normal;text-align:start;line-height:125%;letter-spacing:0px;word-spacing:0px;writing-mode:lr-tb;text-anchor:start;fill:#000000;fill-opacity:1;stroke:none;font-family:Sans;-inkscape-font-specification:Sans"
       id="flowRoot6504"
       xml:space="preserve"><flowRegion
         id="flowRegion6506"><rect
           style="font-size:20px;font-style:normal;font-variant:normal;font-weight:normal;font-stretch:normal;text-align:start;line-height:125%;writing-mode:lr-tb;text-anchor:start;font-family:Sans;-inkscape-font-specification:Sans"
           y="415.93362"
           x="505.71429"
           height="71.428574"
           width="202.14285"
           id="rect6508" /></flowRegion><flowPara
         style="font-size:20px;font-style:normal;font-variant:normal;font-weight:normal;font-stretch:normal;text-align:start;line-height:125%;writing-mode:lr-tb;text-anchor:start;font-family:Sans;-inkscape-font-specification:Sans"
         id="flowPara6510">Linux</flowPara></flowRoot>    <flowRoot
       transform="translate(-121.3858,198.51062)"
       style="font-size:20px;font-style:normal;font-variant:normal;font-weight:normal;font-stretch:normal;text-align:start;line-height:125%;letter-spacing:0px;word-spacing:0px;writing-mode:lr-tb;text-anchor:start;fill:#000000;fill-opacity:1;stroke:none;font-family:Sans;-inkscape-font-specification:Sans"
       id="flowRoot6504-4"
       xml:space="preserve"><flowRegion
         id="flowRegion6506-2"><rect
           style="font-size:20px;font-style:normal;font-variant:normal;font-weight:normal;font-stretch:normal;text-align:start;line-height:125%;writing-mode:lr-tb;text-anchor:start;font-family:Sans;-inkscape-font-specification:Sans"
           y="415.93362"
           x="505.71429"
           height="71.428574"
           width="202.14285"
           id="rect6508-8" /></flowRegion><flowPara
         style="font-size:20px;font-style:normal;font-variant:normal;font-weight:normal;font-stretch:normal;text-align:start;line-height:125%;writing-mode:lr-tb;text-anchor:start;font-family:Sans;-inkscape-font-specification:Sans"
         id="flowPara6510-8">Host</flowPara></flowRoot>    <flowRoot
       transform="translate(-261.54532,28.081719)"
       style="font-size:20px;font-style:normal;font-variant:normal;font-weight:normal;font-stretch:normal;text-align:start;line-height:125%;letter-spacing:0px;word-spacing:0px;writing-mode:lr-tb;text-anchor:start;fill:#999999;fill-opacity:1;stroke:none;font-family:Sans;-inkscape-font-specification:Sans"
       id="flowRoot6504-1"
       xml:space="preserve"><flowRegion
         id="flowRegion6506-4"><rect
           style="font-size:20px;font-style:normal;font-variant:normal;font-weight:normal;font-stretch:normal;text-align:start;line-height:125%;writing-mode:lr-tb;text-anchor:start;fill:#999999;font-family:Sans;-inkscape-font-specification:Sans"
           y="415.93362"
           x="505.71429"
           height="71.428574"
           width="202.14285"
           id="rect6508-81" /></flowRegion><flowPara
         style="font-size:20px;font-style:normal;font-variant:normal;font-weight:normal;font-stretch:normal;text-align:start;line-height:125%;writing-mode:lr-tb;text-anchor:start;fill:#999999;font-family:Sans;-inkscape-font-specification:Sans"
         id="flowPara6510-2">Barbeque RTRM</flowPara></flowRoot>    <flowRoot
       transform="translate(-279.27187,-174.49268)"
       style="font-size:20px;font-style:normal;font-variant:normal;font-weight:normal;font-stretch:normal;text-align:start;line-height:125%;letter-spacing:0px;word-spacing:0px;writing-mode:lr-tb;text-anchor:start;fill:#000000;fill-opacity:1;stroke:none;font-family:Sans;-inkscape-font-specification:Sans"
       id="flowRoot6504-0"
       xml:space="preserve"><flowRegion
         id="flowRegion6506-46"><rect
           style="font-size:20px;font-style:normal;font-variant:normal;font-weight:normal;font-stretch:normal;text-align:start;line-height:125%;writing-mode:lr-tb;text-anchor:start;font-family:Sans;-inkscape-font-specification:Sans"
           y="415.93362"
           x="505.71429"
           height="71.428574"
           width="202.14285"
           id="rect6508-10" /></flowRegion><flowPara
         style="font-size:20px;font-style:normal;font-variant:normal;font-weight:normal;font-stretch:normal;text-align:start;line-height:125%;writing-mode:lr-tb;text-anchor:start;font-family:Sans;-inkscape-font-specification:Sans"
         id="flowPara6510-81">Android Application</flowPara></flowRoot>    <flowRoot
       transform="translate(-301.33835,198.89746)"
       style="font-size:20px;font-style:normal;font-variant:normal;font-weight:normal;font-stretch:normal;text-align:start;line-height:125%;letter-spacing:0px;word-spacing:0px;writing-mode:lr-tb;text-anchor:start;fill:#000000;fill-opacity:1;stroke:none;font-family:Sans;-inkscape-font-specification:Sans"
       id="flowRoot6504-4-8"
       xml:space="preserve"><flowRegion
         id="flowRegion6506-2-8"><rect
           style="font-size:20px;font-style:normal;font-variant:normal;font-weight:normal;font-stretch:normal;text-align:start;line-height:125%;writing-mode:lr-tb;text-anchor:start;font-family:Sans;-inkscape-font-specification:Sans"
           y="415.93362"
           x="505.71429"
           height="23.571415"
           width="84.285744"
           id="rect6508-8-3" /></flowRegion><flowPara
         style="font-size:20px;font-style:normal;font-variant:normal;font-weight:normal;font-stretch:normal;text-align:start;line-height:125%;writing-mode:lr-tb;text-anchor:start;font-family:Sans;-inkscape-font-specification:Sans"
         id="flowPara6510-8-7">GPGPU</flowPara></flowRoot>    <flowRoot
       transform="translate(-332.99905,-106.56415)"
       style="font-size:20px;font-style:normal;font-variant:normal;font-weight:normal;font-stretch:normal;text-align:start;line-height:125%;letter-spacing:0px;word-spacing:0px;writing-mode:lr-tb;text-anchor:start;fill:#000000;fill-opacity:1;stroke:none;font-family:Sans;-inkscape-font-specification:Sans"
       id="flowRoot6504-1-3"
       xml:space="preserve"><flowRegion
         id="flowRegion6506-4-7"><rect
           style="font-size:20px;font-style:normal;font-variant:normal;font-weight:normal;font-stretch:normal;text-align:start;line-height:125%;writing-mode:lr-tb;text-anchor:start;font-family:Sans;-inkscape-font-specification:Sans"
           y="415.93362"
           x="505.71429"
           height="71.428574"
           width="202.14285"
           id="rect6508-81-5" /></flowRegion><flowPara
         style="font-size:14px;font-style:normal;font-variant:normal;font-weight:normal;font-stretch:normal;text-align:start;line-height:125%;writing-mode:lr-tb;text-anchor:start;font-family:Sans;-inkscape-font-specification:Sans"
         id="flowPara6510-2-8">Parallel Computing</flowPara><flowPara
         id="flowPara6673"
         style="font-size:14px;font-style:normal;font-variant:normal;font-weight:normal;font-stretch:normal;text-align:start;line-height:125%;writing-mode:lr-tb;text-anchor:start;font-family:Sans;-inkscape-font-specification:Sans">Libraries</flowPara></flowRoot>    <flowRoot
       transform="translate(-281.8976,-53.911389)"
       style="font-size:20px;font-style:normal;font-variant:normal;font-weight:normal;font-stretch:normal;text-align:start;line-height:125%;letter-spacing:0px;word-spacing:0px;writing-mode:lr-tb;text-anchor:start;fill:#000000;fill-opacity:1;stroke:none;font-family:Sans;-inkscape-font-specification:Sans"
       id="flowRoot6504-9"
       xml:space="preserve"><flowRegion
         id="flowRegion6506-9"><rect
           style="font-size:20px;font-style:normal;font-variant:normal;font-weight:normal;font-stretch:normal;text-align:start;line-height:125%;writing-mode:lr-tb;text-anchor:start;font-family:Sans;-inkscape-font-specification:Sans"
           y="415.93362"
           x="505.71429"
           height="71.428574"
           width="202.14285"
           id="rect6508-7" /></flowRegion><flowPara
         style="font-size:20px;font-style:normal;font-variant:normal;font-weight:normal;font-stretch:normal;text-align:start;line-height:125%;writing-mode:lr-tb;text-anchor:start;font-family:Sans;-inkscape-font-specification:Sans"
         id="flowPara6510-4">OpenCL</flowPara></flowRoot>    <g
       transform="translate(-111.85713,-45.285718)"
       id="g4249-8">
      <path
         transform="matrix(0.68292681,0,0,0.70000001,243.75203,222.37125)"
         d="m 523.57142,172.41362 c 0,7.88978 -6.55583,14.28571 -14.64286,14.28571 -8.08703,0 -14.64286,-6.39593 -14.64286,-14.28571 0,-7.88978 6.55583,-14.28571 14.64286,-14.28571 8.08703,0 14.64286,6.39593 14.64286,14.28571 z"
         sodipodi:ry="14.285714"
         sodipodi:rx="14.642858"
         sodipodi:cy="172.41362"
         sodipodi:cx="508.92856"
         id="path4188-3"
         style="fill:#1a1a1a;fill-opacity:1;fill-rule:nonzero;stroke:none"
         sodipodi:type="arc" />
      <text
         sodipodi:linespacing="125%"
         id="text4182-9"
         y="348.77509"
         x="587.02728"
         style="font-size:8px;font-style:normal;font-weight:normal;line-height:125%;letter-spacing:0px;word-spacing:0px;fill:#ffffff;fill-opacity:1;stroke:none;font-family:Sans"
         xml:space="preserve"><tspan
           style="font-size:16px;font-style:normal;font-variant:normal;font-weight:normal;font-stretch:normal;fill:#ffffff;stroke:none;font-family:Droid Sans;-inkscape-font-specification:Droid Sans"
           y="348.77509"
           x="587.02728"
           id="tspan4184-0"
           sodipodi:role="line">1</tspan></text>
    </g>
    <g
       transform="translate(-109.2857,229.28571)"
       id="g4249-0">
      <path
         transform="matrix(0.68292681,0,0,0.70000001,243.75203,222.37125)"
         d="m 523.57142,172.41362 c 0,7.88978 -6.55583,14.28571 -14.64286,14.28571 -8.08703,0 -14.64286,-6.39593 -14.64286,-14.28571 0,-7.88978 6.55583,-14.28571 14.64286,-14.28571 8.08703,0 14.64286,6.39593 14.64286,14.28571 z"
         sodipodi:ry="14.285714"
         sodipodi:rx="14.642858"
         sodipodi:cy="172.41362"
         sodipodi:cx="508.92856"
         id="path4188-1"
         style="fill:#1a1a1a;fill-opacity:1;fill-rule:nonzero;stroke:none"
         sodipodi:type="arc" />
      <text
         sodipodi:linespacing="125%"
         id="text4182-0"
         y="348.77509"
         x="587.02728"
         style="font-size:8px;font-style:normal;font-weight:normal;line-height:125%;letter-spacing:0px;word-spacing:0px;fill:#ffffff;fill-opacity:1;stroke:none;font-family:Sans"
         xml:space="preserve"><tspan
           style="font-size:16px;font-style:normal;font-variant:normal;font-weight:normal;font-stretch:normal;fill:#ffffff;stroke:none;font-family:Droid Sans;-inkscape-font-specification:Droid Sans"
           y="348.77509"
           x="587.02728"
           id="tspan4184-3"
           sodipodi:role="line">1</tspan></text>
    </g>
    <g
       id="g4326"
       transform="translate(-3.5714286,3.5714286)">
      <path
         transform="matrix(0.68292681,0,0,0.70000001,2.32347,536.65696)"
         d="m 523.57142,172.41362 c 0,7.88978 -6.55583,14.28571 -14.64286,14.28571 -8.08703,0 -14.64286,-6.39593 -14.64286,-14.28571 0,-7.88978 6.55583,-14.28571 14.64286,-14.28571 8.08703,0 14.64286,6.39593 14.64286,14.28571 z"
         sodipodi:ry="14.285714"
         sodipodi:rx="14.642858"
         sodipodi:cy="172.41362"
         sodipodi:cx="508.92856"
         id="path4188-4"
         style="fill:#1a1a1a;fill-opacity:1;fill-rule:nonzero;stroke:none"
         sodipodi:type="arc" />
      <text
         sodipodi:linespacing="125%"
         id="text4182-7"
         y="663.06079"
         x="345.59872"
         style="font-size:8px;font-style:normal;font-weight:normal;line-height:125%;letter-spacing:0px;word-spacing:0px;fill:#ffffff;fill-opacity:1;stroke:none;font-family:Sans"
         xml:space="preserve"><tspan
           style="font-size:16px;font-style:normal;font-variant:normal;font-weight:normal;font-stretch:normal;fill:#ffffff;stroke:none;font-family:Droid Sans;-inkscape-font-specification:Droid Sans"
           y="663.06079"
           x="345.59872"
           id="tspan4184-5"
           sodipodi:role="line">2</tspan></text>
    </g>
    <g
       id="g4331"
       transform="translate(-5,-5.7142857)">
      <path
         transform="matrix(0.68292681,0,0,0.70000001,-164.81939,393.79982)"
         d="m 523.57142,172.41362 c 0,7.88978 -6.55583,14.28571 -14.64286,14.28571 -8.08703,0 -14.64286,-6.39593 -14.64286,-14.28571 0,-7.88978 6.55583,-14.28571 14.64286,-14.28571 8.08703,0 14.64286,6.39593 14.64286,14.28571 z"
         sodipodi:ry="14.285714"
         sodipodi:rx="14.642858"
         sodipodi:cy="172.41362"
         sodipodi:cx="508.92856"
         id="path4188-12"
         style="fill:#1a1a1a;fill-opacity:1;fill-rule:nonzero;stroke:none"
         sodipodi:type="arc" />
      <text
         sodipodi:linespacing="125%"
         id="text4182-5"
         y="520.20367"
         x="178.45586"
         style="font-size:8px;font-style:normal;font-weight:normal;line-height:125%;letter-spacing:0px;word-spacing:0px;fill:#ffffff;fill-opacity:1;stroke:none;font-family:Sans"
         xml:space="preserve"><tspan
           style="font-size:16px;font-style:normal;font-variant:normal;font-weight:normal;font-stretch:normal;fill:#ffffff;stroke:none;font-family:Droid Sans;-inkscape-font-specification:Droid Sans"
           y="520.20367"
           x="178.45586"
           id="tspan4184-8"
           sodipodi:role="line">3</tspan></text>
    </g>
    <g
       id="g4352"
       transform="translate(1.4285714,1.4285714)">
      <path
         transform="matrix(0.68292681,0,0,0.70000001,-172.67653,470.94267)"
         d="m 523.57142,172.41362 c 0,7.88978 -6.55583,14.28571 -14.64286,14.28571 -8.08703,0 -14.64286,-6.39593 -14.64286,-14.28571 0,-7.88978 6.55583,-14.28571 14.64286,-14.28571 8.08703,0 14.64286,6.39593 14.64286,14.28571 z"
         sodipodi:ry="14.285714"
         sodipodi:rx="14.642858"
         sodipodi:cy="172.41362"
         sodipodi:cx="508.92856"
         id="path4188-9"
         style="fill:#1a1a1a;fill-opacity:1;fill-rule:nonzero;stroke:none"
         sodipodi:type="arc" />
      <text
         sodipodi:linespacing="125%"
         id="text4182-4"
         y="597.37439"
         x="170.54849"
         style="font-size:8px;font-style:normal;font-weight:normal;line-height:125%;letter-spacing:0px;word-spacing:0px;fill:#ffffff;fill-opacity:1;stroke:none;font-family:Sans"
         xml:space="preserve"><tspan
           style="font-size:16px;font-style:normal;font-variant:normal;font-weight:normal;font-stretch:normal;fill:#ffffff;stroke:none;font-family:Droid Sans;-inkscape-font-specification:Droid Sans"
           y="597.37439"
           x="170.54849"
           id="tspan4184-1"
           sodipodi:role="line">4</tspan></text>
    </g>
    <g
       transform="translate(1.4285734,-205.71428)"
       id="g4352-6">
      <path
         transform="matrix(0.68292681,0,0,0.70000001,-172.67653,470.94267)"
         d="m 523.57142,172.41362 c 0,7.88978 -6.55583,14.28571 -14.64286,14.28571 -8.08703,0 -14.64286,-6.39593 -14.64286,-14.28571 0,-7.88978 6.55583,-14.28571 14.64286,-14.28571 8.08703,0 14.64286,6.39593 14.64286,14.28571 z"
         sodipodi:ry="14.285714"
         sodipodi:rx="14.642858"
         sodipodi:cy="172.41362"
         sodipodi:cx="508.92856"
         id="path4188-9-3"
         style="fill:#1a1a1a;fill-opacity:1;fill-rule:nonzero;stroke:none"
         sodipodi:type="arc" />
      <text
         sodipodi:linespacing="125%"
         id="text4182-4-9"
         y="597.37439"
         x="170.54849"
         style="font-size:8px;font-style:normal;font-weight:normal;line-height:125%;letter-spacing:0px;word-spacing:0px;fill:#ffffff;fill-opacity:1;stroke:none;font-family:Sans"
         xml:space="preserve"><tspan
           style="font-size:16px;font-style:normal;font-variant:normal;font-weight:normal;font-stretch:normal;fill:#ffffff;stroke:none;font-family:Droid Sans;-inkscape-font-specification:Droid Sans"
           y="597.37439"
           x="170.54849"
           id="tspan4184-1-0"
           sodipodi:role="line">4</tspan></text>
    </g>
    <g
       id="g4400">
      <path
         transform="matrix(0.68292681,0,0,0.70000001,-229.1051,490.94267)"
         d="m 523.57142,172.41362 c 0,7.88978 -6.55583,14.28571 -14.64286,14.28571 -8.08703,0 -14.64286,-6.39593 -14.64286,-14.28571 0,-7.88978 6.55583,-14.28571 14.64286,-14.28571 8.08703,0 14.64286,6.39593 14.64286,14.28571 z"
         sodipodi:ry="14.285714"
         sodipodi:rx="14.642858"
         sodipodi:cy="172.41362"
         sodipodi:cx="508.92856"
         id="path4188-9-30"
         style="fill:#1a1a1a;fill-opacity:1;fill-rule:nonzero;stroke:none"
         sodipodi:type="arc" />
      <text
         sodipodi:linespacing="125%"
         id="text4182-4-5"
         y="617.37439"
         x="114.11993"
         style="font-size:8px;font-style:normal;font-weight:normal;line-height:125%;letter-spacing:0px;word-spacing:0px;fill:#ffffff;fill-opacity:1;stroke:none;font-family:Sans"
         xml:space="preserve"><tspan
           style="font-size:16px;font-style:normal;font-variant:normal;font-weight:normal;font-stretch:normal;fill:#ffffff;stroke:none;font-family:Droid Sans;-inkscape-font-specification:Droid Sans"
           y="617.37439"
           x="114.11993"
           id="tspan4184-1-3"
           sodipodi:role="line">5</tspan></text>
    </g>
    <g
       id="g4437"
       transform="translate(2.8571429,0)">
      <g
         id="g4421">
        <path
           sodipodi:type="arc"
           style="fill:#1a1a1a;fill-opacity:1;fill-rule:nonzero;stroke:none"
           id="path4188-9-9"
           sodipodi:cx="508.92856"
           sodipodi:cy="172.41362"
           sodipodi:rx="14.642858"
           sodipodi:ry="14.285714"
           d="m 523.57142,172.41362 c 0,7.88978 -6.55583,14.28571 -14.64286,14.28571 -8.08703,0 -14.64286,-6.39593 -14.64286,-14.28571 0,-7.88978 6.55583,-14.28571 14.64286,-14.28571 8.08703,0 14.64286,6.39593 14.64286,14.28571 z"
           transform="matrix(0.68292681,0,0,0.70000001,-200.53367,78.79982)" />
        <text
           xml:space="preserve"
           style="font-size:8px;font-style:normal;font-weight:normal;line-height:125%;letter-spacing:0px;word-spacing:0px;fill:#ffffff;fill-opacity:1;stroke:none;font-family:Sans"
           x="142.69135"
           y="205.23154"
           id="text4182-4-1"
           sodipodi:linespacing="125%"><tspan
             sodipodi:role="line"
             id="tspan4184-1-9"
             x="142.69135"
             y="205.23154"
             style="font-size:16px;font-style:normal;font-variant:normal;font-weight:normal;font-stretch:normal;fill:#ffffff;stroke:none;font-family:Droid Sans;-inkscape-font-specification:Droid Sans">6</tspan></text>
      </g>
    </g>
    <g
       id="g4421-0"
       transform="translate(29.999999,258.94727)">
      <g
         id="g4484">
        <path
           sodipodi:type="arc"
           style="fill:#1a1a1a;fill-opacity:1;fill-rule:nonzero;stroke:none"
           id="path4188-9-9-2"
           sodipodi:cx="508.92856"
           sodipodi:cy="172.41362"
           sodipodi:rx="14.642858"
           sodipodi:ry="14.285714"
           d="m 523.57142,172.41362 c 0,7.88978 -6.55583,14.28571 -14.64286,14.28571 -8.08703,0 -14.64286,-6.39593 -14.64286,-14.28571 0,-7.88978 6.55583,-14.28571 14.64286,-14.28571 8.08703,0 14.64286,6.39593 14.64286,14.28571 z"
           transform="matrix(0.68292681,0,0,0.70000001,-200.53367,78.79982)" />
        <text
           xml:space="preserve"
           style="font-size:8px;font-style:normal;font-weight:normal;line-height:125%;letter-spacing:0px;word-spacing:0px;fill:#ffffff;fill-opacity:1;stroke:none;font-family:Sans"
           x="142.69135"
           y="205.23154"
           id="text4182-4-1-4"
           sodipodi:linespacing="125%"><tspan
             sodipodi:role="line"
             id="tspan4184-1-9-0"
             x="142.69135"
             y="205.23154"
             style="font-size:16px;font-style:normal;font-variant:normal;font-weight:normal;font-stretch:normal;fill:#ffffff;stroke:none;font-family:Droid Sans;-inkscape-font-specification:Droid Sans">7</tspan></text>
      </g>
    </g>
    <path
       style="fill:none;stroke:#000000;stroke-width:1;stroke-linecap:butt;stroke-linejoin:miter;stroke-opacity:1;stroke-miterlimit:4;stroke-dasharray:8, 8;stroke-dashoffset:0;marker-end:url(#DotL)"
       d="m 477.85714,97.413618 -28.57143,0 0,272.857142 -80.71428,0 0,-262.14286 -172.14286,0 0,330.71429 -82.14286,0 0,-349.285715"
       id="path3243"
       inkscape:connector-curvature="0"
       transform="translate(87.027286,166.36145)" />
    <path
       style="fill:#96c8a2;stroke:#005f41;stroke-width:2;stroke-linecap:round;stroke-linejoin:round;stroke-opacity:1;fill-opacity:1;stroke-miterlimit:4;stroke-dasharray:2, 2;stroke-dashoffset:0;opacity:0.70464135;filter:url(#filter4032)"
       d="m 52.857143,280.98505 372.142857,0 0,-95.71429 -190.71429,0 0,57.14286 -181.428567,0 z"
       id="path3244"
       inkscape:connector-curvature="0"
       transform="translate(87.027286,166.36145)" />
    <flowRoot
       transform="translate(-135.71692,-76.861669)"
       style="font-size:20px;font-style:normal;font-variant:normal;font-weight:normal;font-stretch:normal;text-align:start;line-height:125%;letter-spacing:0px;word-spacing:0px;writing-mode:lr-tb;text-anchor:start;fill:#000000;fill-opacity:1;stroke:none;font-family:Sans;-inkscape-font-specification:Sans"
       id="flowRoot6504-97"
       xml:space="preserve"><flowRegion
         id="flowRegion6506-98"><rect
           style="font-size:20px;font-style:normal;font-variant:normal;font-weight:normal;font-stretch:normal;text-align:start;line-height:125%;writing-mode:lr-tb;text-anchor:start;font-family:Sans;-inkscape-font-specification:Sans"
           y="415.93362"
           x="505.71429"
           height="71.428574"
           width="202.14285"
           id="rect6508-1" /></flowRegion><flowPara
         style="font-size:20px;font-style:normal;font-variant:normal;font-weight:normal;font-stretch:normal;text-align:start;line-height:125%;writing-mode:lr-tb;text-anchor:start;font-family:Sans;-inkscape-font-specification:Sans"
         id="flowPara6510-84">Android</flowPara></flowRoot>    <g
       transform="translate(-6.295145,7.053252)"
       id="g6460">
      <path
         inkscape:connector-curvature="0"
         d="m 610.95768,268.28377 c 0,7.80322 -10.77865,8.43275 -24.0595,8.43275 -13.28084,0 -24.0595,-0.62953 -24.0595,-8.43275 0,-7.80323 10.77866,-19.83981 24.0595,-19.83981 13.28085,0 24.0595,12.03658 24.0595,19.83981 z"
         id="path7399"
         style="fill:url(#linearGradient6482-871);fill-opacity:1;fill-rule:evenodd;stroke:#323232;stroke-width:2.30017400000000016;stroke-linecap:round;stroke-linejoin:miter;stroke-miterlimit:4;stroke-opacity:1;stroke-dashoffset:0;marker:none;visibility:visible;display:inline;overflow:visible;" />
      <path
         inkscape:connector-curvature="0"
         d="m 26.96958,27.467861 c 0,2.355069 -5.207711,4.26423 -11.631747,4.26423 -6.4240371,0 -11.6317478,-1.909161 -11.6317478,-4.26423 0,-2.355069 5.2077107,-4.26423 11.6317478,-4.26423 6.424036,0 11.631747,1.909161 11.631747,4.26423 z"
         transform="matrix(1.7900955,0,0,3.0663146,558.62877,168.19407)"
         id="path5993"
         style="opacity:0.47647059000000003;fill:#000000;fill-opacity:1;fill-rule:evenodd;stroke:none;stroke-width:0.99999994000000003;marker:none;visibility:visible;display:inline;overflow:visible;" />
      <path
         inkscape:connector-curvature="0"
         d="m 608.71375,267.66787 c 0,6.18288 -9.76789,6.68169 -21.80335,6.68169 -12.03544,0 -21.80335,-0.49881 -21.80335,-6.68169 0,-6.18288 9.76791,-15.72006 21.80335,-15.72006 12.03546,0 21.80335,9.53718 21.80335,15.72006 z"
         id="path7402"
         style="fill:none;stroke:url(#linearGradient6484-756);stroke-width:2.30017446999999997;stroke-linecap:round;stroke-linejoin:miter;stroke-miterlimit:4;stroke-opacity:0.54054051000000003;stroke-dashoffset:0;marker:none;visibility:visible;display:inline;overflow:visible;" />
      <path
         inkscape:connector-curvature="0"
         d="m 624.8778,226.07057 c 0,19.92126 -17.01488,36.08924 -37.97964,36.08924 -20.96476,0 -37.97964,-16.16798 -37.97964,-36.08924 0,-19.92128 17.01488,-36.08926 37.97964,-36.08926 20.96476,0 37.97964,16.16798 37.97964,36.08926 z"
         id="path7384"
         style="fill:url(#radialGradient6486-745);fill-opacity:1;fill-rule:evenodd;stroke:url(#radialGradient6488-832);stroke-width:2.30017424000000004;stroke-linecap:round;stroke-linejoin:miter;stroke-miterlimit:4;stroke-opacity:1;stroke-dashoffset:0;marker:none;visibility:visible;display:inline;overflow:visible;" />
      <path
         inkscape:connector-curvature="0"
         d="m 604.1906,227.30403 c 10e-4,9.53083 -7.727,17.25785 -17.26102,17.25785 -9.53403,0 -17.26248,-7.72702 -17.26103,-17.25785 -10e-4,-9.53082 7.727,-17.25785 17.26103,-17.25785 9.53402,0 17.26247,7.72703 17.26102,17.25785 l 0,0 z"
         id="path7394"
         style="fill:#1c1c1c;fill-opacity:1;fill-rule:evenodd;stroke:#090909;stroke-width:2.30017542999999991;stroke-linecap:round;stroke-linejoin:miter;stroke-miterlimit:4;stroke-opacity:1;stroke-dasharray:none;stroke-dashoffset:0;marker:none;visibility:visible;display:inline;overflow:visible;" />
      <path
         inkscape:connector-curvature="0"
         d="m 572.7252,208.8852 c 0,2.61281 -2.11811,4.73092 -4.73092,4.73092 -2.61282,0 -4.73092,-2.11811 -4.73092,-4.73092 0,-2.61282 2.1181,-4.73092 4.73092,-4.73092 2.61281,0 4.73092,2.1181 4.73092,4.73092 z"
         id="path7418"
         style="fill:#505050;fill-opacity:1;fill-rule:evenodd;stroke:none;stroke-width:1;marker:none;visibility:visible;display:inline;overflow:visible;" />
      <path
         inkscape:connector-curvature="0"
         d="m 622.53818,226.07054 c 0,18.68008 -15.95858,33.84072 -35.62182,33.84072 -19.66323,0 -35.62181,-15.16064 -35.62181,-33.84072 0,-18.68008 15.95858,-33.84072 35.62181,-33.84072 19.66324,0 35.62182,15.16064 35.62182,33.84072 z"
         id="path7404"
         style="fill:none;stroke:#ffffff;stroke-width:2.30017351999999997;stroke-linecap:round;stroke-linejoin:miter;stroke-miterlimit:4;stroke-opacity:0.54054051000000003;stroke-dasharray:none;stroke-dashoffset:0;marker:none;visibility:visible;display:inline;overflow:visible;" />
      <path
         inkscape:connector-curvature="0"
         d="m 601.83052,227.32798 c 10e-4,8.22441 -6.66154,14.89227 -14.88094,14.89227 -8.21939,0 -14.88218,-6.66786 -14.88093,-14.89227 -0.001,-8.2244 6.66154,-14.89226 14.88093,-14.89226 8.2194,0 14.88219,6.66786 14.88094,14.89226 l 0,0 z"
         id="path7423"
         style="fill:none;stroke:url(#linearGradient6490-991);stroke-width:2.30017446999999997;stroke-linecap:round;stroke-linejoin:miter;stroke-miterlimit:4;stroke-opacity:0.37387384000000001;stroke-dasharray:none;stroke-dashoffset:0;marker:none;visibility:visible;display:inline;overflow:visible;" />
      <path
         inkscape:connector-curvature="0"
         d="m 608.91082,243.65706 c -0.80898,-0.88961 -2.85664,-0.25157 -4.57357,1.42512 -1.71693,1.67668 -2.45297,3.75707 -1.64398,4.64668 0.80899,0.88961 2.85665,0.25157 4.57358,-1.42511 1.71693,-1.67668 2.45296,-3.75707 1.64397,-4.64669 z"
         id="path4755"
         style="fill:#555555;fill-opacity:1;fill-rule:evenodd;stroke:none;stroke-width:1;marker:none;visibility:visible;display:inline;overflow:visible;" />
      <path
         inkscape:connector-curvature="0"
         d="m 597.20939,191.129 c 0,2.53078 -4.61942,2.29237 -10.31121,2.29237 -5.6918,0 -10.31122,0.23841 -10.31122,-2.29237 0,-2.53079 4.61942,-4.58476 10.31122,-4.58476 5.69179,0 10.31121,2.05397 10.31121,4.58476 z"
         id="path7420"
         style="fill:#a0a0a0;fill-opacity:1;fill-rule:evenodd;stroke:#6c6c6c;stroke-width:2.30017446999999997;stroke-linecap:round;stroke-linejoin:miter;stroke-miterlimit:4;stroke-opacity:1;stroke-dashoffset:0;marker:none;visibility:visible;display:inline;overflow:visible;" />
      <path
         inkscape:connector-curvature="0"
         d="m 567.59115,205.44358 c -0.85978,0.1094 -1.68797,0.59827 -2.2283,1.22197 -0.49044,0.5942 -0.79068,1.39824 -0.79068,2.22829 0,0.29645 10e-4,0.58808 0.0719,0.86257 2.49547,-0.26324 4.27407,-1.13857 6.03796,-2.9471 0.0129,-0.0131 -0.0129,-0.0586 0,-0.0719 -0.62945,-0.80084 -1.56272,-1.29385 -2.65958,-1.29385 -0.14822,0 -0.28798,-0.0182 -0.43128,0 z"
         id="path3972"
         style="fill:#666666;fill-opacity:1;fill-rule:evenodd;stroke:none;stroke-width:1;marker:none;visibility:visible;display:inline;overflow:visible;" />
      <path
         inkscape:connector-curvature="0"
         d="m 579.04289,190.84823 c 3.62569,-2.37501 10.983,-2.95772 15.852,0"
         id="path4848"
         style="fill:none;stroke:url(#linearGradient6492-203);stroke-width:2.30017470999999984px;stroke-linecap:round;stroke-linejoin:miter;stroke-opacity:1;" />
      <path
         inkscape:connector-curvature="0"
         d="m 597.09329,232.0892 c 0,5.13406 -4.01846,9.29603 -8.97548,9.29603 -4.95702,0 -8.97548,-4.16197 -8.97548,-9.29603 0,-5.13406 4.01846,-9.29604 8.97548,-9.29604 4.95702,0 8.97548,4.16198 8.97548,9.29604 z"
         id="path2599"
         style="opacity:0.38235293999999997;fill:url(#radialGradient6494-163);fill-opacity:1;fill-rule:nonzero;stroke:none;stroke-width:1;marker:none;visibility:visible;display:inline;overflow:visible;font-family:Bitstream Vera Sans;" />
      <path
         inkscape:connector-curvature="0"
         d="m 600.79661,227.26096 c 0,7.64104 -6.19429,13.83533 -13.83533,13.83533 -7.64104,0 -13.83533,-6.19429 -13.83533,-13.83533 0,-7.64104 6.19429,-13.83533 13.83533,-13.83533 7.64104,0 13.83533,6.19429 13.83533,13.83533 l 0,0 z"
         id="path8893"
         style="opacity:0.48235294000000001;fill:url(#radialGradient6496-599);fill-opacity:1;fill-rule:evenodd;stroke:none;stroke-width:0.30000000999999998;marker:none;visibility:visible;display:inline;overflow:visible;enable-background:accumulate;" />
      <path
         inkscape:connector-curvature="0"
         d="m 597.27779,227.33564 c 0,5.68274 -4.60678,10.28952 -10.28953,10.28952 -5.68274,0 -10.28952,-4.60678 -10.28952,-10.28952 0,-5.68275 4.60678,-10.28952 10.28952,-10.28952 5.68275,0 10.28953,4.60677 10.28953,10.28952 l 0,0 z"
         id="path8907"
         style="fill:none;stroke:url(#radialGradient6498-3);stroke-width:2.30017470999999984;stroke-linecap:butt;stroke-linejoin:miter;stroke-miterlimit:10;stroke-opacity:1;stroke-dasharray:none;stroke-dashoffset:0;marker:none;visibility:visible;display:inline;overflow:visible;enable-background:accumulate;" />
      <path
         inkscape:connector-curvature="0"
         d="m 591.52736,227.29522 c 0,2.5407 -2.05965,4.60035 -4.60035,4.60035 -2.5407,0 -4.60035,-2.05965 -4.60035,-4.60035 0,-2.5407 2.05965,-4.60035 4.60035,-4.60035 2.5407,0 4.60035,2.05965 4.60035,4.60035 z"
         id="path15180"
         style="fill:#000000;fill-opacity:1;fill-rule:nonzero;stroke:none;stroke-width:1;marker:none;visibility:visible;display:inline;overflow:visible;font-family:Bitstream Vera Sans;" />
      <path
         inkscape:connector-curvature="0"
         d="m 593.82752,220.39472 c 0,2.5407 -3.08947,4.60035 -6.90053,4.60035 -3.81105,0 -6.90052,-2.05965 -6.90052,-4.60035 0,-2.5407 3.08947,-4.60035 6.90052,-4.60035 3.81106,0 6.90053,2.05965 6.90053,4.60035 z"
         id="path5604"
         style="fill:url(#linearGradient6500-168);fill-opacity:1;fill-rule:evenodd;stroke:none;stroke-width:1;marker:none;visibility:visible;display:inline;overflow:visible;enable-background:accumulate;" />
      <path
         inkscape:connector-curvature="0"
         d="m 10.040361,8.2567558 c 0,0.5928765 -0.4523495,1.0734978 -1.0103508,1.0734978 -0.5580013,0 -1.0103508,-0.4806213 -1.0103508,-1.0734978 0,-0.5928765 0.4523495,-1.0734978 1.0103508,-1.0734978 0.5580013,0 1.0103508,0.4806213 1.0103508,1.0734978 z"
         transform="matrix(4.682453,0,0,4.4070128,525.71168,172.49757)"
         id="path6043"
         style="fill:#767676;fill-opacity:1;fill-rule:evenodd;stroke:none;stroke-width:1;marker:none;visibility:visible;display:inline;overflow:visible;" />
      <path
         inkscape:connector-curvature="0"
         d="m 569.81944,208.96572 c 0,1.03216 -0.83673,1.86889 -1.86889,1.86889 -1.03216,0 -1.86889,-0.83673 -1.86889,-1.86889 0,-1.03216 0.83673,-1.86889 1.86889,-1.86889 1.03216,0 1.86889,0.83673 1.86889,1.86889 l 0,0 z"
         id="path6141"
         style="fill:#ffffff;fill-opacity:1;fill-rule:evenodd;stroke:none;stroke-width:1;marker:none;visibility:visible;display:inline;overflow:visible;enable-background:accumulate;" />
      <path
         inkscape:connector-curvature="0"
         d="m 606.34709,227.30404 c 0.002,10.72154 -8.69236,19.41394 -19.41751,19.41394 -10.72515,0 -19.41915,-8.6924 -19.41752,-19.41394 -0.002,-10.72155 8.69237,-19.41394 19.41752,-19.41394 10.72515,0 19.41914,8.69239 19.41751,19.41394 l 0,0 z"
         id="path6143"
         style="fill:none;stroke:url(#linearGradient6502-41);stroke-width:2.30017519000000004;stroke-linecap:round;stroke-linejoin:miter;stroke-miterlimit:4;stroke-opacity:1;stroke-dasharray:none;stroke-dashoffset:0;marker:none;visibility:visible;display:inline;overflow:visible;" />
    </g>
  </g>
</svg>
